nexys3/combinational_gates_muxed.vcd
$date
   Thu Apr 06 15:49:40 2023
$end
$version
  P.20131013
$end
$timescale
  1ps
$end
$scope module combinational_gates_muxed_tb $end
$scope module UUT $end
$var wire 1 ! sw [4] $end
$var wire 1 " sw [3] $end
$var wire 1 # sw [2] $end
$var wire 1 $ sw [1] $end
$var wire 1 % sw [0] $end
$var wire 1 & nand_out $end
$var wire 1 ' and_out $end
$var wire 1 ( nor_out $end
$var wire 1 ) or_out $end
$var wire 1 * xor_out $end
$var wire 1 + xnor_out $end
$var wire 1 , buff_out $end
$var wire 1 - not_out $end
$var wire 1 . MuxIn [7] $end
$var wire 1 / MuxIn [6] $end
$var wire 1 0 MuxIn [5] $end
$var wire 1 1 MuxIn [4] $end
$var wire 1 2 MuxIn [3] $end
$var wire 1 3 MuxIn [2] $end
$var wire 1 4 MuxIn [1] $end
$var wire 1 5 MuxIn [0] $end
$var wire 1 6 SelectIn [2] $end
$var wire 1 7 SelectIn [1] $end
$var wire 1 8 SelectIn [0] $end
$var reg 1 9 led $end
$upscope $end
$upscope $end
$enddefinitions $end
#0
$dumpvars
19
07
1.
08
0/
06
1&
0'
1(
0)
0*
1+
0,
1-
15
04
13
02
01
10
0#
0$
0%
0"
0!
$end
#5000
09
0(
1)
1*
0+
1,
0-
05
14
03
12
11
00
1%
#10000
19
0,
1-
15
04
1$
0%
#15000
09
0.
1/
0&
1'
0*
1+
1,
0-
05
14
13
02
1%
#20000
1.
18
0/
1&
0'
1(
0)
0,
1-
15
04
01
10
1#
0$
0%
#25000
19
0(
1)
1*
0+
1,
0-
05
14
03
12
11
00
1%
#30000
09
0,
1-
15
04
1$
0%
#35000
19
0.
1/
0&
1'
0*
1+
1,
0-
05
14
13
02
1%
#40000
17
1.
08
0/
1&
0'
1(
0)
0,
1-
15
04
01
10
0#
0$
0%
1"
#45000
09
0(
1)
1*
0+
1,
0-
05
14
03
12
11
00
1%
#50000
0,
1-
15
04
1$
0%
#55000
19
0.
1/
0&
1'
0*
1+
1,
0-
05
14
13
02
1%
#60000
09
1.
18
0/
1&
0'
1(
0)
0,
1-
15
04
01
10
1#
0$
0%
#65000
19
0(
1)
1*
0+
1,
0-
05
14
03
12
11
00
1%
#70000
0,
1-
15
04
1$
0%
#75000
09
0.
1/
0&
1'
0*
1+
1,
0-
05
14
13
02
1%
#80000
07
1.
08
0/
16
1&
0'
1(
0)
0,
1-
15
04
01
10
0#
0$
0%
0"
1!
#85000
19
0(
1)
1*
0+
1,
0-
05
14
03
12
11
00
1%
#90000
0,
1-
15
04
1$
0%
#95000
0.
1/
0&
1'
0*
1+
1,
0-
05
14
13
02
1%
#100000
1.
18
0/
1&
0'
1(
0)
0,
1-
15
04
01
10
1#
0$
0%
#105000
09
0(
1)
1*
0+
1,
0-
05
14
03
12
11
00
1%
#110000
0,
1-
15
04
1$
0%
#115000
0.
1/
0&
1'
0*
1+
1,
0-
05
14
13
02
1%
#120000
17
1.
08
0/
1&
0'
1(
0)
0,
1-
15
04
01
10
0#
0$
0%
1"
#125000
0(
1)
1*
0+
1,
0-
05
14
03
12
11
00
1%
#130000
0,
1-
15
04
1$
0%
#135000
19
0.
1/
0&
1'
0*
1+
1,
0-
05
14
13
02
1%
#140000
1.
18
0/
1&
0'
1(
0)
0,
1-
15
04
01
10
1#
0$
0%
#145000
0(
1)
1*
0+
1,
0-
05
14
03
12
11
00
1%
#150000
0,
1-
15
04
1$
0%
#155000
09
0.
1/
0&
1'
0*
1+
1,
0-
05
14
13
02
1%
#160000
x&
