lab0/combinational_gates_muxed.vcd
$date
   Thu Apr 06 10:56:33 2023
$end
$version
  P.20131013
$end
$timescale
  1ps
$end
$scope module combinational_gates_muxed_tb $end
$scope module UUT $end
$var wire 1 ! sw [4] $end
$var wire 1 " sw [3] $end
$var wire 1 # sw [2] $end
$var wire 1 $ sw [1] $end
$var wire 1 % sw [0] $end
$var wire 1 & nand_out $end
$var wire 1 ' and_out $end
$var wire 1 ( nor_out $end
$var wire 1 ) or_out $end
$var wire 1 * xor_out $end
$var wire 1 + xnor_out $end
$var wire 1 , buff_out $end
$var wire 1 - not_out $end
$var wire 1 . MuxIn [7] $end
$var wire 1 / MuxIn [6] $end
$var wire 1 0 MuxIn [5] $end
$var wire 1 1 MuxIn [4] $end
$var wire 1 2 MuxIn [3] $end
$var wire 1 3 MuxIn [2] $end
$var wire 1 4 MuxIn [1] $end
$var wire 1 5 MuxIn [0] $end
$var wire 1 6 SelectIn [2] $end
$var wire 1 7 SelectIn [1] $end
$var wire 1 8 SelectIn [0] $end
$var reg 1 9 led $end
$upscope $end
$upscope $end
$enddefinitions $end
#0
$dumpvars
1&
0'
1(
0)
0*
1+
0,
1-
15
04
13
02
01
10
0/
1.
08
07
06
0%
0$
0#
0"
0!
19
$end
#5000
0(
1)
1*
0+
1,
0-
05
14
03
12
11
00
1%
09
#10000
0,
1-
15
04
0%
1$
19
#15000
0&
1'
0*
1+
1,
0-
05
14
13
02
1/
0.
1%
09
#20000
1&
0'
1(
0)
0,
1-
15
04
01
10
0/
1.
18
0%
0$
1#
#25000
0(
1)
1*
0+
1,
0-
05
14
03
12
11
00
1%
19
#30000
0,
1-
15
04
0%
1$
09
#35000
0&
1'
0*
1+
1,
0-
05
14
13
02
1/
0.
1%
19
#40000
1&
0'
1(
0)
0,
1-
15
04
01
10
0/
1.
08
17
0%
0$
0#
1"
#45000
0(
1)
1*
0+
1,
0-
05
14
03
12
11
00
1%
09
#50000
0,
1-
15
04
0%
1$
#55000
0&
1'
0*
1+
1,
0-
05
14
13
02
1/
0.
1%
19
#60000
1&
0'
1(
0)
0,
1-
15
04
01
10
0/
1.
18
0%
0$
1#
09
#65000
0(
1)
1*
0+
1,
0-
05
14
03
12
11
00
1%
19
#70000
0,
1-
15
04
0%
1$
#75000
0&
1'
0*
1+
1,
0-
05
14
13
02
1/
0.
1%
09
#80000
1&
0'
1(
0)
0,
1-
15
04
01
10
0/
1.
08
07
16
0%
0$
0#
0"
1!
#85000
0(
1)
1*
0+
1,
0-
05
14
03
12
11
00
1%
19
#90000
0,
1-
15
04
0%
1$
#95000
0&
1'
0*
1+
1,
0-
05
14
13
02
1/
0.
1%
#100000
1&
0'
1(
0)
0,
1-
15
04
01
10
0/
1.
18
0%
0$
1#
#105000
0(
1)
1*
0+
1,
0-
05
14
03
12
11
00
1%
09
#110000
0,
1-
15
04
0%
1$
#115000
0&
1'
0*
1+
1,
0-
05
14
13
02
1/
0.
1%
#120000
1&
0'
1(
0)
0,
1-
15
04
01
10
0/
1.
08
17
0%
0$
0#
1"
#125000
0(
1)
1*
0+
1,
0-
05
14
03
12
11
00
1%
#130000
0,
1-
15
04
0%
1$
#135000
0&
1'
0*
1+
1,
0-
05
14
13
02
1/
0.
1%
19
#140000
1&
0'
1(
0)
0,
1-
15
04
01
10
0/
1.
18
0%
0$
1#
#145000
0(
1)
1*
0+
1,
0-
05
14
03
12
11
00
1%
#150000
0,
1-
15
04
0%
1$
#155000
0&
1'
0*
1+
1,
0-
05
14
13
02
1/
0.
1%
09
